…
nyc_wwtp
```

    ## # A tibble: 4,129 × 10
    ##    lat_wwtp lon_wwtp wrrf_abbreviation month   day year  wrrf_name concentration
    ##       <dbl>    <dbl> <chr>             <fct> <int> <chr> <chr>             <dbl>
    ##  1     40.8    -73.9 WI                Augu…    31 2020  Wards Is…          1339
    ##  2     40.8    -73.9 WI                Sept…     8 2020  Wards Is…          1065
    ##  3     40.8    -73.9 WI                Sept…    13 2020  Wards Is…           394
    ##  4     40.8    -73.9 WI                Sept…    15 2020  Wards Is…           316
    ##  5     40.8    -73.9 WI                Sept…    20 2020  Wards Is…          1250
    ##  6     40.8    -73.9 WI                Octo…     6 2020  Wards Is…          1152
    ##  7     40.8    -73.9 WI                Octo…    11 2020  Wards Is…           600
    ##  8     40.8    -73.9 WI                Octo…    13 2020  Wards Is…          2066
    ##  9     40.8    -73.9 WI                Octo…    18 2020  Wards Is…           444
    ## 10     40.8    -73.9 WI                Octo…    20 2020  Wards Is…          3026
    ## # ℹ 4,119 more rows
    ## # ℹ 2 more variables: annotation <chr>, technology <chr>
…
